
graph gil {
1 -- 3;
1 -- 6;
1 -- 7;
1 -- 8;
1 -- 9;
1 -- 10;
1 -- 11;
1 -- 13;
1 -- 14;
1 -- 15;
1 -- 16;
1 -- 18;
1 -- 19;
1 -- 20;
1 -- 22;
1 -- 23;
1 -- 24;
1 -- 27;
1 -- 29;
1 -- 30;
2 -- 4;
2 -- 7;
2 -- 8;
2 -- 10;
2 -- 11;
2 -- 14;
2 -- 15;
2 -- 16;
2 -- 17;
2 -- 18;
2 -- 19;
2 -- 20;
2 -- 21;
2 -- 22;
2 -- 23;
2 -- 24;
2 -- 26;
2 -- 27;
2 -- 28;
2 -- 29;
2 -- 30;
3 -- 4;
3 -- 7;
3 -- 8;
3 -- 11;
3 -- 12;
3 -- 13;
3 -- 14;
3 -- 15;
3 -- 16;
3 -- 17;
3 -- 18;
3 -- 19;
3 -- 20;
3 -- 21;
3 -- 22;
3 -- 23;
3 -- 24;
3 -- 25;
3 -- 26;
3 -- 27;
3 -- 29;
4 -- 5;
4 -- 7;
4 -- 8;
4 -- 9;
4 -- 10;
4 -- 11;
4 -- 13;
4 -- 14;
4 -- 15;
4 -- 16;
4 -- 17;
4 -- 18;
4 -- 19;
4 -- 21;
4 -- 22;
4 -- 23;
4 -- 24;
4 -- 26;
4 -- 27;
4 -- 29;
4 -- 30;
5 -- 6;
5 -- 7;
5 -- 8;
5 -- 9;
5 -- 12;
5 -- 13;
5 -- 14;
5 -- 17;
5 -- 18;
5 -- 19;
5 -- 20;
5 -- 21;
5 -- 22;
5 -- 23;
5 -- 24;
5 -- 25;
5 -- 28;
5 -- 29;
5 -- 30;
6 -- 7;
6 -- 8;
6 -- 9;
6 -- 10;
6 -- 11;
6 -- 13;
6 -- 14;
6 -- 15;
6 -- 16;
6 -- 18;
6 -- 19;
6 -- 22;
6 -- 24;
6 -- 25;
6 -- 26;
6 -- 27;
6 -- 28;
6 -- 29;
7 -- 8;
7 -- 9;
7 -- 11;
7 -- 12;
7 -- 14;
7 -- 15;
7 -- 16;
7 -- 17;
7 -- 18;
7 -- 21;
7 -- 22;
7 -- 24;
7 -- 25;
7 -- 27;
7 -- 28;
8 -- 9;
8 -- 10;
8 -- 11;
8 -- 12;
8 -- 15;
8 -- 17;
8 -- 19;
8 -- 25;
8 -- 27;
8 -- 28;
8 -- 29;
8 -- 30;
9 -- 10;
9 -- 13;
9 -- 14;
9 -- 15;
9 -- 18;
9 -- 21;
9 -- 22;
9 -- 23;
9 -- 24;
9 -- 26;
9 -- 28;
9 -- 29;
9 -- 30;
10 -- 11;
10 -- 14;
10 -- 15;
10 -- 18;
10 -- 20;
10 -- 21;
10 -- 23;
10 -- 25;
10 -- 27;
10 -- 28;
10 -- 29;
11 -- 12;
11 -- 13;
11 -- 15;
11 -- 17;
11 -- 18;
11 -- 19;
11 -- 20;
11 -- 21;
11 -- 23;
11 -- 24;
11 -- 26;
11 -- 27;
11 -- 30;
12 -- 13;
12 -- 16;
12 -- 17;
12 -- 19;
12 -- 20;
12 -- 22;
12 -- 24;
12 -- 25;
12 -- 26;
12 -- 27;
12 -- 28;
12 -- 30;
13 -- 14;
13 -- 15;
13 -- 17;
13 -- 18;
13 -- 20;
13 -- 21;
13 -- 22;
13 -- 24;
13 -- 25;
13 -- 27;
13 -- 29;
14 -- 15;
14 -- 17;
14 -- 18;
14 -- 20;
14 -- 21;
14 -- 23;
14 -- 24;
14 -- 25;
14 -- 26;
14 -- 27;
14 -- 28;
14 -- 29;
14 -- 30;
15 -- 16;
15 -- 17;
15 -- 18;
15 -- 20;
15 -- 21;
15 -- 22;
15 -- 23;
15 -- 25;
15 -- 28;
15 -- 29;
15 -- 30;
16 -- 17;
16 -- 18;
16 -- 21;
16 -- 22;
16 -- 23;
16 -- 24;
16 -- 25;
16 -- 26;
16 -- 28;
16 -- 29;
17 -- 18;
17 -- 20;
17 -- 22;
17 -- 24;
17 -- 25;
17 -- 26;
17 -- 27;
17 -- 29;
17 -- 30;
18 -- 19;
18 -- 20;
18 -- 21;
18 -- 23;
18 -- 24;
18 -- 27;
18 -- 28;
18 -- 29;
18 -- 30;
19 -- 20;
19 -- 21;
19 -- 22;
19 -- 23;
19 -- 24;
19 -- 25;
19 -- 26;
19 -- 27;
20 -- 21;
20 -- 24;
20 -- 26;
20 -- 28;
20 -- 29;
20 -- 30;
21 -- 22;
21 -- 23;
21 -- 24;
21 -- 26;
21 -- 27;
21 -- 28;
21 -- 29;
21 -- 30;
22 -- 23;
22 -- 24;
22 -- 26;
22 -- 28;
22 -- 29;
23 -- 24;
23 -- 25;
23 -- 27;
23 -- 29;
23 -- 30;
24 -- 25;
24 -- 26;
24 -- 27;
24 -- 29;
25 -- 26;
25 -- 27;
25 -- 28;
25 -- 29;
25 -- 30;
26 -- 27;
26 -- 28;
26 -- 29;
26 -- 30;
27 -- 28;
27 -- 29;
27 -- 30;
28 -- 29;
28 -- 30;
29 -- 30;


}
